c:\users\matt\documents\visual studio 2013\projects\cyborg battle 11 final build and bug fix\cyborg battle\cyborg battle\release\vc120.pdb
c:\users\matt\documents\visual studio 2013\projects\cyborg battle 11 final build and bug fix\cyborg battle\cyborg battle\release\wall.obj
c:\users\matt\documents\visual studio 2013\projects\cyborg battle 11 final build and bug fix\cyborg battle\cyborg battle\release\timecontroller.obj
c:\users\matt\documents\visual studio 2013\projects\cyborg battle 11 final build and bug fix\cyborg battle\cyborg battle\release\soundmanager.obj
c:\users\matt\documents\visual studio 2013\projects\cyborg battle 11 final build and bug fix\cyborg battle\cyborg battle\release\res_path.obj
c:\users\matt\documents\visual studio 2013\projects\cyborg battle 11 final build and bug fix\cyborg battle\cyborg battle\release\randomnumber.obj
c:\users\matt\documents\visual studio 2013\projects\cyborg battle 11 final build and bug fix\cyborg battle\cyborg battle\release\main.obj
c:\users\matt\documents\visual studio 2013\projects\cyborg battle 11 final build and bug fix\cyborg battle\cyborg battle\release\livingentity.obj
c:\users\matt\documents\visual studio 2013\projects\cyborg battle 11 final build and bug fix\cyborg battle\cyborg battle\release\keyboardinput.obj
c:\users\matt\documents\visual studio 2013\projects\cyborg battle 11 final build and bug fix\cyborg battle\cyborg battle\release\hero.obj
c:\users\matt\documents\visual studio 2013\projects\cyborg battle 11 final build and bug fix\cyborg battle\cyborg battle\release\groupbuilder.obj
c:\users\matt\documents\visual studio 2013\projects\cyborg battle 11 final build and bug fix\cyborg battle\cyborg battle\release\grob.obj
c:\users\matt\documents\visual studio 2013\projects\cyborg battle 11 final build and bug fix\cyborg battle\cyborg battle\release\globals.obj
c:\users\matt\documents\visual studio 2013\projects\cyborg battle 11 final build and bug fix\cyborg battle\cyborg battle\release\glob.obj
c:\users\matt\documents\visual studio 2013\projects\cyborg battle 11 final build and bug fix\cyborg battle\cyborg battle\release\game.obj
c:\users\matt\documents\visual studio 2013\projects\cyborg battle 11 final build and bug fix\cyborg battle\cyborg battle\release\frame.obj
c:\users\matt\documents\visual studio 2013\projects\cyborg battle 11 final build and bug fix\cyborg battle\cyborg battle\release\entity.obj
c:\users\matt\documents\visual studio 2013\projects\cyborg battle 11 final build and bug fix\cyborg battle\cyborg battle\release\drawing_functions.obj
c:\users\matt\documents\visual studio 2013\projects\cyborg battle 11 final build and bug fix\cyborg battle\cyborg battle\release\cleanup.obj
c:\users\matt\documents\visual studio 2013\projects\cyborg battle 11 final build and bug fix\cyborg battle\cyborg battle\release\animationset.obj
c:\users\matt\documents\visual studio 2013\projects\cyborg battle 11 final build and bug fix\cyborg battle\cyborg battle\release\animation.obj
c:\users\matt\documents\visual studio 2013\projects\cyborg battle 11 final build and bug fix\cyborg battle\release\cyborg battle.exe
c:\users\matt\documents\visual studio 2013\projects\cyborg battle 11 final build and bug fix\cyborg battle\release\cyborg battle.pdb
c:\users\matt\documents\visual studio 2013\projects\cyborg battle 11 final build and bug fix\cyborg battle\cyborg battle\release\cyborg battle.tlog\cl.command.1.tlog
c:\users\matt\documents\visual studio 2013\projects\cyborg battle 11 final build and bug fix\cyborg battle\cyborg battle\release\cyborg battle.tlog\cl.read.1.tlog
c:\users\matt\documents\visual studio 2013\projects\cyborg battle 11 final build and bug fix\cyborg battle\cyborg battle\release\cyborg battle.tlog\cl.write.1.tlog
c:\users\matt\documents\visual studio 2013\projects\cyborg battle 11 final build and bug fix\cyborg battle\cyborg battle\release\cyborg battle.tlog\link.command.1.tlog
c:\users\matt\documents\visual studio 2013\projects\cyborg battle 11 final build and bug fix\cyborg battle\cyborg battle\release\cyborg battle.tlog\link.read.1.tlog
c:\users\matt\documents\visual studio 2013\projects\cyborg battle 11 final build and bug fix\cyborg battle\cyborg battle\release\cyborg battle.tlog\link.write.1.tlog
