^C:\USERS\THEFA\DOCUMENTS\VISUAL STUDIO 2013\PROJECTS\CYBORG BATTLE 11 FINAL BUILD AND BUG FIX - COPY\CYBORG BATTLE\CYBORG BATTLE\RELEASE\ANIMATION.OBJ|C:\USERS\THEFA\DOCUMENTS\VISUAL STUDIO 2013\PROJECTS\CYBORG BATTLE 11 FINAL BUILD AND BUG FIX - COPY\CYBORG BATTLE\CYBORG BATTLE\RELEASE\ANIMATIONSET.OBJ|C:\USERS\THEFA\DOCUMENTS\VISUAL STUDIO 2013\PROJECTS\CYBORG BATTLE 11 FINAL BUILD AND BUG FIX - COPY\CYBORG BATTLE\CYBORG BATTLE\RELEASE\CLEANUP.OBJ|C:\USERS\THEFA\DOCUMENTS\VISUAL STUDIO 2013\PROJECTS\CYBORG BATTLE 11 FINAL BUILD AND BUG FIX - COPY\CYBORG BATTLE\CYBORG BATTLE\RELEASE\CYBORG BATTLE.RES|C:\USERS\THEFA\DOCUMENTS\VISUAL STUDIO 2013\PROJECTS\CYBORG BATTLE 11 FINAL BUILD AND BUG FIX - COPY\CYBORG BATTLE\CYBORG BATTLE\RELEASE\DRAWING_FUNCTIONS.OBJ|C:\USERS\THEFA\DOCUMENTS\VISUAL STUDIO 2013\PROJECTS\CYBORG BATTLE 11 FINAL BUILD AND BUG FIX - COPY\CYBORG BATTLE\CYBORG BATTLE\RELEASE\ENTITY.OBJ|C:\USERS\THEFA\DOCUMENTS\VISUAL STUDIO 2013\PROJECTS\CYBORG BATTLE 11 FINAL BUILD AND BUG FIX - COPY\CYBORG BATTLE\CYBORG BATTLE\RELEASE\FRAME.OBJ|C:\USERS\THEFA\DOCUMENTS\VISUAL STUDIO 2013\PROJECTS\CYBORG BATTLE 11 FINAL BUILD AND BUG FIX - COPY\CYBORG BATTLE\CYBORG BATTLE\RELEASE\GAME.OBJ|C:\USERS\THEFA\DOCUMENTS\VISUAL STUDIO 2013\PROJECTS\CYBORG BATTLE 11 FINAL BUILD AND BUG FIX - COPY\CYBORG BATTLE\CYBORG BATTLE\RELEASE\GLOB.OBJ|C:\USERS\THEFA\DOCUMENTS\VISUAL STUDIO 2013\PROJECTS\CYBORG BATTLE 11 FINAL BUILD AND BUG FIX - COPY\CYBORG BATTLE\CYBORG BATTLE\RELEASE\GLOBALS.OBJ|C:\USERS\THEFA\DOCUMENTS\VISUAL STUDIO 2013\PROJECTS\CYBORG BATTLE 11 FINAL BUILD AND BUG FIX - COPY\CYBORG BATTLE\CYBORG BATTLE\RELEASE\GROB.OBJ|C:\USERS\THEFA\DOCUMENTS\VISUAL STUDIO 2013\PROJECTS\CYBORG BATTLE 11 FINAL BUILD AND BUG FIX - COPY\CYBORG BATTLE\CYBORG BATTLE\RELEASE\GROUPBUILDER.OBJ|C:\USERS\THEFA\DOCUMENTS\VISUAL STUDIO 2013\PROJECTS\CYBORG BATTLE 11 FINAL BUILD AND BUG FIX - COPY\CYBORG BATTLE\CYBORG BATTLE\RELEASE\HERO.OBJ|C:\USERS\THEFA\DOCUMENTS\VISUAL STUDIO 2013\PROJECTS\CYBORG BATTLE 11 FINAL BUILD AND BUG FIX - COPY\CYBORG BATTLE\CYBORG BATTLE\RELEASE\KEYBOARDINPUT.OBJ|C:\USERS\THEFA\DOCUMENTS\VISUAL STUDIO 2013\PROJECTS\CYBORG BATTLE 11 FINAL BUILD AND BUG FIX - COPY\CYBORG BATTLE\CYBORG BATTLE\RELEASE\LIVINGENTITY.OBJ|C:\USERS\THEFA\DOCUMENTS\VISUAL STUDIO 2013\PROJECTS\CYBORG BATTLE 11 FINAL BUILD AND BUG FIX - COPY\CYBORG BATTLE\CYBORG BATTLE\RELEASE\MAIN.OBJ|C:\USERS\THEFA\DOCUMENTS\VISUAL STUDIO 2013\PROJECTS\CYBORG BATTLE 11 FINAL BUILD AND BUG FIX - COPY\CYBORG BATTLE\CYBORG BATTLE\RELEASE\RANDOMNUMBER.OBJ|C:\USERS\THEFA\DOCUMENTS\VISUAL STUDIO 2013\PROJECTS\CYBORG BATTLE 11 FINAL BUILD AND BUG FIX - COPY\CYBORG BATTLE\CYBORG BATTLE\RELEASE\RES_PATH.OBJ|C:\USERS\THEFA\DOCUMENTS\VISUAL STUDIO 2013\PROJECTS\CYBORG BATTLE 11 FINAL BUILD AND BUG FIX - COPY\CYBORG BATTLE\CYBORG BATTLE\RELEASE\SOUNDMANAGER.OBJ|C:\USERS\THEFA\DOCUMENTS\VISUAL STUDIO 2013\PROJECTS\CYBORG BATTLE 11 FINAL BUILD AND BUG FIX - COPY\CYBORG BATTLE\CYBORG BATTLE\RELEASE\TIMECONTROLLER.OBJ|C:\USERS\THEFA\DOCUMENTS\VISUAL STUDIO 2013\PROJECTS\CYBORG BATTLE 11 FINAL BUILD AND BUG FIX - COPY\CYBORG BATTLE\CYBORG BATTLE\RELEASE\WALL.OBJ
C:\USERS\THEFA\DOCUMENTS\VISUAL STUDIO 2013\PROJECTS\CYBORG BATTLE 11 FINAL BUILD AND BUG FIX - COPY\CYBORG BATTLE\RELEASE\CYBORG BATTLE.EXE
C:\USERS\THEFA\DOCUMENTS\VISUAL STUDIO 2013\PROJECTS\CYBORG BATTLE 11 FINAL BUILD AND BUG FIX - COPY\CYBORG BATTLE\RELEASE\CYBORG BATTLE.PDB
